step_verify.vcd
$date
	Sat Feb 21 21:29:38 2026
$end
$version
	Icarus Verilog
$end
$timescale
	1ps
$end
$scope module tb_step_by_step $end
$var reg 1 ! clk $end
$var reg 1 " reset $end
$var integer 32 # write_cnt [31:0] $end
$scope module dut $end
$var wire 1 ! clk $end
$var wire 1 " reset $end
$var wire 1 $ zero $end
$var wire 7 % op [6:0] $end
$var wire 1 & funct7_5 $end
$var wire 3 ' funct3 [2:0] $end
$var wire 2 ( ResultSrc [1:0] $end
$var wire 1 ) RegWrite $end
$var wire 1 * PCWrite $end
$var wire 4 + MemWrite [3:0] $end
$var wire 3 , ImmSrc [2:0] $end
$var wire 1 - IRWrite $end
$var wire 1 . AdrSrc $end
$var wire 2 / ALUSrcB [1:0] $end
$var wire 2 0 ALUSrcA [1:0] $end
$var wire 4 1 ALUControl [3:0] $end
$scope module cu $end
$var wire 1 ! clk $end
$var wire 1 " reset $end
$var wire 1 $ zero $end
$var wire 7 2 op [6:0] $end
$var wire 1 & funct7_5 $end
$var wire 3 3 funct3 [2:0] $end
$var parameter 4 4 S0_FETCH $end
$var parameter 4 5 S10_BEQ $end
$var parameter 4 6 S1_DECODE $end
$var parameter 4 7 S2_MEMADR $end
$var parameter 4 8 S3_MEMREAD $end
$var parameter 4 9 S4_MEMWB $end
$var parameter 4 : S5_MEMWRITE $end
$var parameter 4 ; S6_EXECUTER $end
$var parameter 4 < S7_ALUWB $end
$var parameter 4 = S8_EXECUTEI $end
$var parameter 4 > S9_JAL $end
$var reg 4 ? ALUControl [3:0] $end
$var reg 2 @ ALUOp [1:0] $end
$var reg 2 A ALUSrcA [1:0] $end
$var reg 2 B ALUSrcB [1:0] $end
$var reg 1 . AdrSrc $end
$var reg 1 - IRWrite $end
$var reg 3 C ImmSrc [2:0] $end
$var reg 4 D MemWrite [3:0] $end
$var reg 1 * PCWrite $end
$var reg 1 ) RegWrite $end
$var reg 2 E ResultSrc [1:0] $end
$var reg 4 F current_state [3:0] $end
$var reg 4 G next_state [3:0] $end
$upscope $end
$scope module dp $end
$var wire 4 H ALUControl [3:0] $end
$var wire 2 I ALUSrcA [1:0] $end
$var wire 2 J ALUSrcB [1:0] $end
$var wire 1 . AdrSrc $end
$var wire 1 - IRWrite $end
$var wire 3 K ImmSrc [2:0] $end
$var wire 4 L MemWrite [3:0] $end
$var wire 1 * PCWrite $end
$var wire 1 ) RegWrite $end
$var wire 2 M ResultSrc [1:0] $end
$var wire 1 ! clk $end
$var wire 1 " reset $end
$var wire 1 $ zero $end
$var wire 32 N rd2 [31:0] $end
$var wire 32 O rd1 [31:0] $end
$var wire 7 P op [6:0] $end
$var wire 1 & funct7_5 $end
$var wire 3 Q funct3 [2:0] $end
$var wire 32 R ReadData [31:0] $end
$var wire 32 S ImmExt [31:0] $end
$var wire 32 T Adr [31:0] $end
$var wire 32 U ALUResult [31:0] $end
$var reg 32 V A [31:0] $end
$var reg 32 W ALUOut [31:0] $end
$var reg 32 X B [31:0] $end
$var reg 32 Y Data [31:0] $end
$var reg 32 Z Instr [31:0] $end
$var reg 32 [ OldPC [31:0] $end
$var reg 32 \ PC [31:0] $end
$var reg 32 ] Result [31:0] $end
$var reg 32 ^ SrcA [31:0] $end
$var reg 32 _ SrcB [31:0] $end
$scope module alu_inst $end
$var wire 32 ` a [31:0] $end
$var wire 32 a a_signed [31:0] $end
$var wire 4 b alu_control [3:0] $end
$var wire 32 c b [31:0] $end
$var wire 32 d b_signed [31:0] $end
$var wire 1 $ zero $end
$var wire 1 e sltu_res $end
$var wire 1 f slt_res $end
$var wire 5 g shamt [4:0] $end
$var reg 32 h result [31:0] $end
$upscope $end
$scope module ext_unit $end
$var wire 3 i immsrc [2:0] $end
$var wire 25 j instr [31:7] $end
$var reg 32 k immext [31:0] $end
$upscope $end
$scope module mem_inst $end
$var wire 10 l addr [9:0] $end
$var wire 1 ! clk $end
$var wire 32 m din [31:0] $end
$var wire 1 n en $end
$var wire 4 o we [3:0] $end
$var parameter 32 p ADDR_WIDTH $end
$var parameter 32 q DATA_WIDTH $end
$var reg 32 r dout [31:0] $end
$var integer 32 s i [31:0] $end
$upscope $end
$scope module rf $end
$var wire 5 t a1 [4:0] $end
$var wire 5 u a2 [4:0] $end
$var wire 5 v a3 [4:0] $end
$var wire 1 ! clk $end
$var wire 32 w wd3 [31:0] $end
$var wire 1 ) we3 $end
$var wire 32 x rd2 [31:0] $end
$var wire 32 y rd1 [31:0] $end
$upscope $end
$upscope $end
$upscope $end
$scope task check $end
$var reg 32 z expected [31:0] $end
$var reg 128 { name [127:0] $end
$var reg 5 | reg_idx [4:0] $end
$upscope $end
$upscope $end
$enddefinitions $end
$comment Show the parameter values. $end
$dumpall
b100000 q
b1010 p
b1001 >
b1000 =
b111 <
b110 ;
b101 :
b100 9
b11 8
b10 7
b1 6
b1010 5
b0 4
$end
#0
$dumpvars
bx |
bx {
bx z
bx y
bx x
b100 w
bx v
bx u
bx t
b100 s
bx r
b0 o
1n
bx m
b0 l
bx k
bx j
bx i
b100 h
b100 g
1f
1e
b100 d
b100 c
b0 b
b0 a
b0 `
b100 _
b0 ^
b100 ]
b0 \
bx [
bx Z
bx Y
bx X
bx W
bx V
b100 U
b0 T
bx S
bx R
bx Q
bx P
bx O
bx N
b10 M
b0 L
bx K
b10 J
b0 I
b0 H
b1 G
b0 F
b10 E
b0 D
bx C
b10 B
b0 A
b0 @
b0 ?
bx 3
bx 2
b0 1
b0 0
b10 /
0.
1-
bx ,
b0 +
1*
0)
b10 (
bx '
x&
bx %
0$
b0 #
1"
0!
$end
#5000
b0 [
b100 W
1!
#10000
b111100000000000010010011 R
b111100000000000010010011 r
b100 s
0!
#15000
b0 ,
b0 C
b0 K
b0 i
b10 (
b10 E
b10 M
b10 /
b10 B
b10 J
1*
1-
b10011 %
b10011 2
b10011 P
b0 '
b0 3
b0 Q
0&
b0 O
b0 y
b1111 S
b1111 k
b0 t
b1111 u
b1 v
b11110000000000001 j
b111100000000000010010011 Y
b111100000000000010010011 Z
1!
#20000
b100 s
0!
#25000
b1111 g
b1 l
b1111 d
b1111 _
b1111 c
b1111 U
b1111 h
b100 T
b1000 G
b1 0
b1 A
b1 I
b0 (
b0 E
b0 M
b1 /
b1 B
b1 J
0*
0-
1f
b0 a
1e
b0 ^
b0 `
b100 \
b1 F
b0 V
1!
0"
#30000
b10100000000000100010011 R
b10100000000000100010011 r
b100 s
0!
#35000
b111 G
b10 @
b10 0
b10 A
b10 I
b1 /
b1 B
b1 J
b1111 ]
b1111 w
b1000 F
b1111 W
b10100000000000100010011 Y
1!
#40000
b100 s
0!
#45000
bx g
x$
bx U
bx h
xf
bx d
xe
bx _
bx c
b100 a
b100 ^
b100 `
b0 G
1)
b0 0
b0 A
b0 I
b0 /
b0 B
b0 J
b0 @
b111 F
1!
#50000
b100000101000100010001000100100100100000011110000011000100100000001010000100100101101110011010010111010000101001 {
b1111 z
b1 |
b1 #
b100 s
0!
#55000
b100 g
0$
b1000 U
b1000 h
0f
b100 d
0e
b100 _
b100 c
b1 G
1*
b10 (
b10 E
b10 M
b10 /
b10 B
b10 J
1-
0)
b1000 ]
b1000 w
b0 F
bx W
1!
#60000
b100 s
0!
#65000
b101 g
b10 l
1f
b101 d
1e
b101 _
b101 c
b1001 U
b1001 h
b101 S
b101 k
b1000 T
b1000 G
b1 0
b1 A
b1 I
b0 (
b0 E
b0 M
b1 /
b1 B
b1 J
0*
0-
b100 a
b100 ^
b100 `
b101 u
b10 v
b1010000000000010 j
b1000 \
b1 F
b100 [
b10100000000000100010011 Z
b1000 W
1!
#70000
b11111111111100000000000110010011 R
b11111111111100000000000110010011 r
b100 s
0!
#75000
b101 U
b101 h
b0 a
b0 ^
b0 `
b111 G
b10 @
b10 0
b10 A
b10 I
b1 /
b1 B
b1 J
b1001 ]
b1001 w
b1000 F
b1001 W
b11111111111100000000000110010011 Y
1!
#80000
b100 s
0!
#85000
bx g
x$
bx U
bx h
bx d
bx _
bx c
xf
b1000 a
xe
b1000 ^
b1000 `
b0 G
1)
b0 0
b0 A
b0 I
b0 /
b0 B
b0 J
b0 @
b101 ]
b101 w
b111 F
b101 W
1!
#90000
b100000101000100010001000100100100100000011110000011001000100000001010000100100101101110011010010111010000101001 {
b101 z
b10 |
b10 #
b100 s
0!
#95000
b100 g
0$
b1100 U
b1100 h
0f
b100 d
0e
b100 _
b100 c
b1 G
1*
b10 (
b10 E
b10 M
b10 /
b10 B
b10 J
1-
0)
b1100 ]
b1100 w
b0 F
bx W
1!
#100000
b100 s
0!
#105000
b11111 g
b11 l
b11111111111111111111111111111111 d
1e
b11111111111111111111111111111111 _
b11111111111111111111111111111111 c
b111 U
b111 h
1&
b11111111111111111111111111111111 S
b11111111111111111111111111111111 k
b1100 T
b1000 G
b1 0
b1 A
b1 I
b0 (
b0 E
b0 M
b1 /
b1 B
b1 J
0*
0-
b1000 a
b1000 ^
b1000 `
b11111 u
b11 v
b1111111111110000000000011 j
b1100 \
b1 F
b1000 [
b11111111111100000000000110010011 Z
b1100 W
1!
#110000
b100011010001000110011 R
b100011010001000110011 r
b100 s
0!
#115000
b11111111111111111111111111111111 U
b11111111111111111111111111111111 h
b0 a
b0 ^
b0 `
b111 G
b10 @
b10 0
b10 A
b10 I
b1 /
b1 B
b1 J
b111 ]
b111 w
b1000 F
b111 W
b100011010001000110011 Y
1!
#120000
b100 s
0!
#125000
bx g
x$
bx U
bx h
xf
bx d
xe
bx _
bx c
b1100 a
b1100 ^
b1100 `
b0 G
1)
b0 0
b0 A
b0 I
b0 /
b0 B
b0 J
b0 @
b11111111111111111111111111111111 ]
b11111111111111111111111111111111 w
b111 F
b11111111111111111111111111111111 W
1!
#130000
b100000101000100010001000100100100100000011110000011001100100000001010000010110100110001001010010010000000100000 {
b11111111111111111111111111111111 z
b11 |
b11 #
b100 s
0!
#135000
b100 g
0$
b10000 U
b10000 h
0f
b100 d
0e
b100 _
b100 c
b1 G
1*
b10 (
b10 E
b10 M
b10 /
b10 B
b10 J
1-
0)
b10000 ]
b10000 w
b0 F
bx W
1!
#140000
b100 s
0!
#145000
b1 g
b100 l
b1 d
b1 _
b1 c
b1101 U
b1101 h
b110011 %
b110011 2
b110011 P
b10 '
b10 3
b10 Q
0&
b11111111111111111111111111111111 O
b11111111111111111111111111111111 y
b1111 N
b1111 x
b1 S
b1 k
b10000 T
b110 G
b1 0
b1 A
b1 I
b0 (
b0 E
b0 M
b1 /
b1 B
b1 J
0*
0-
b1100 a
b1100 ^
b1100 `
b11 t
b1 u
b100 v
b10001101000100 j
b10000 \
b1 F
b1100 [
b100011010001000110011 Z
b10000 W
1!
#150000
b100011011001010110011 R
b100011011001010110011 r
b100 s
0!
#155000
b1111 g
b1 U
b1 h
b1000 1
b1000 ?
b1000 H
b1000 b
b1111 d
b1111 _
b1111 c
1f
b11111111111111111111111111111111 a
b11111111111111111111111111111111 ^
b11111111111111111111111111111111 `
b111 G
b10 @
b10 0
b10 A
b10 I
b0 /
b0 B
b0 J
b1101 ]
b1101 w
b110 F
b1101 W
b1111 X
b1111 m
b11111111111111111111111111111111 V
b100011011001010110011 Y
1!
#160000
b100 s
0!
#165000
b11111 U
b11111 h
0f
b10000 a
b10000 ^
b10000 `
b0 1
b0 ?
b0 H
b0 b
b0 G
1)
b0 0
b0 A
b0 I
b0 @
b1 ]
b1 w
b111 F
b1 W
1!
#170000
b101001101001100010101000010000000100000001010000010110100110001001000000011110000100000001100010011010100101001 {
b1 z
b100 |
b100 #
b100 s
0!
#175000
b10100 U
b10100 h
b100 g
b100 d
b100 _
b100 c
b1 G
1*
b10 (
b10 E
b10 M
b10 /
b10 B
b10 J
1-
0)
b10100 ]
b10100 w
b0 F
b11111 W
1!
#180000
b100 s
0!
#185000
b1 g
b101 l
b1 d
b1 _
b1 c
b10001 U
b10001 h
b11 '
b11 3
b11 Q
b10100 T
b110 G
b1 0
b1 A
b1 I
b0 (
b0 E
b0 M
b1 /
b1 B
b1 J
0*
0-
b10000 a
b10000 ^
b10000 `
b101 v
b10001101100101 j
b10100 \
b1 F
b10000 [
b100011011001010110011 Z
b10100 W
1!
#190000
b100010010001100110011 R
b100010010001100110011 r
b100 s
0!
#195000
b1111 g
1$
b0 U
b0 h
b1001 1
b1001 ?
b1001 H
b1001 b
b1111 d
b1111 _
b1111 c
1f
b11111111111111111111111111111111 a
b11111111111111111111111111111111 ^
b11111111111111111111111111111111 `
b111 G
b10 @
b10 0
b10 A
b10 I
b0 /
b0 B
b0 J
b10001 ]
b10001 w
b110 F
b10001 W
b100010010001100110011 Y
1!
#200000
b100 s
0!
#205000
0$
b100011 U
b100011 h
0f
b10100 a
b10100 ^
b10100 `
b0 1
b0 ?
b0 H
b0 b
b0 G
1)
b0 0
b0 A
b0 I
b0 @
b0 ]
b0 w
b111 F
b0 W
1!
#210000
b10100110100110001010100010101010010000000101000010011010110000101111000001000000011110000100000001100010011010100101001 {
b0 z
b101 |
b101 #
b100 s
0!
#215000
b11000 U
b11000 h
b100 g
b100 d
b100 _
b100 c
b1 G
1*
b10 (
b10 E
b10 M
b10 /
b10 B
b10 J
1-
0)
b11000 ]
b11000 w
b0 F
b100011 W
1!
#220000
b100 s
0!
#225000
b1 g
b110 l
b1 d
b1 _
b1 c
b10101 U
b10101 h
b10 '
b10 3
b10 Q
b101 O
b101 y
b11000 T
b110 G
b1 0
b1 A
b1 I
b0 (
b0 E
b0 M
b1 /
b1 B
b1 J
0*
0-
b10100 a
b10100 ^
b10100 `
b10 t
b110 v
b10001001000110 j
b11000 \
b1 F
b10100 [
b100010010001100110011 Z
b11000 W
1!
#230000
b100010011001110110011 R
b100010011001110110011 r
b100 s
0!
#235000
b1111 g
b1 U
b1 h
b1000 1
b1000 ?
b1000 H
b1000 b
1f
b1111 d
1e
b1111 _
b1111 c
b101 a
b101 ^
b101 `
b111 G
b10 @
b10 0
b10 A
b10 I
b0 /
b0 B
b0 J
b10101 ]
b10101 w
b110 F
b10101 W
b101 V
b100010011001110110011 Y
1!
#240000
b100 s
0!
#245000
b100111 U
b100111 h
0f
b11000 a
0e
b11000 ^
b11000 `
b0 1
b0 ?
b0 H
b0 b
b0 G
1)
b0 0
b0 A
b0 I
b0 @
b1 ]
b1 w
b111 F
b1 W
1!
#250000
b101001101001100010101000010000000100000001010000011010100100000001111000010000000110001001101010010100100100000 {
b1 z
b110 |
b110 #
b100 s
0!
#255000
b11100 U
b11100 h
b100 g
b100 d
b100 _
b100 c
b1 G
1*
b10 (
b10 E
b10 M
b10 /
b10 B
b10 J
1-
0)
b11100 ]
b11100 w
b0 F
b100111 W
1!
#260000
b100 s
0!
#265000
b1 g
b111 l
b1 d
b1 _
b1 c
b11001 U
b11001 h
b11 '
b11 3
b11 Q
b11100 T
b110 G
b1 0
b1 A
b1 I
b0 (
b0 E
b0 M
b1 /
b1 B
b1 J
0*
0-
b11000 a
b11000 ^
b11000 `
b111 v
b10001001100111 j
b11100 \
b1 F
b11000 [
b100010011001110110011 Z
b11100 W
1!
#270000
b1000001000010000110011 R
b1000001000010000110011 r
b100 s
0!
#275000
b1111 g
b1 U
b1 h
b1001 1
b1001 ?
b1001 H
b1001 b
1f
b1111 d
1e
b1111 _
b1111 c
b101 a
b101 ^
b101 `
b111 G
b10 @
b10 0
b10 A
b10 I
b0 /
b0 B
b0 J
b11001 ]
b11001 w
b110 F
b11001 W
b1000001000010000110011 Y
1!
#280000
b100 s
0!
#285000
b101011 U
b101011 h
0f
b11100 a
0e
b11100 ^
b11100 `
b0 1
b0 ?
b0 H
b0 b
b0 G
1)
b0 0
b0 A
b0 I
b0 @
b1 ]
b1 w
b111 F
b1 W
1!
#290000
b101001101001100010101000101010100100000001010000011010100100000001111000010000000110001001101010010100100100000 {
b111 |
b111 #
b100 s
0!
#295000
b100000 U
b100000 h
b100 g
b100 d
b100 _
b100 c
b1 G
1*
b10 (
b10 E
b10 M
b10 /
b10 B
b10 J
1-
0)
b100000 ]
b100000 w
b0 F
b101011 W
1!
#300000
b100 s
0!
#305000
b10 g
b1000 l
b10 d
b10 _
b10 c
b11110 U
b11110 h
b0 '
b0 3
b0 Q
b1111 O
b1111 y
b101 N
b101 x
b10 S
b10 k
b100000 T
b110 G
b1 0
b1 A
b1 I
b0 (
b0 E
b0 M
b1 /
b1 B
b1 J
0*
0-
b11100 a
b11100 ^
b11100 `
b1 t
b10 u
b1000 v
b100000100001000 j
b100000 \
b1 F
b11100 [
b1000001000010000110011 Z
b100000 W
1!
#310000
b1000000001000001000010010110011 R
b1000000001000001000010010110011 r
b100 s
0!
#315000
b101 g
b10100 U
b10100 h
b101 d
b101 _
b101 c
b1111 a
b1111 ^
b1111 `
b111 G
b10 @
b10 0
b10 A
b10 I
b0 /
b0 B
b0 J
b11110 ]
b11110 w
b110 F
b11110 W
b101 X
b101 m
b1111 V
b1000000001000001000010010110011 Y
1!
#320000
b100 s
0!
#325000
b100101 U
b100101 h
b100000 a
b100000 ^
b100000 `
b0 G
1)
b0 0
b0 A
b0 I
b0 @
b10100 ]
b10100 w
b111 F
b10100 W
1!
#330000
b100000101000100010001000010000000100000001000000010000000100000001000000010000000100000001000000010000000100000 {
b10100 z
b1000 |
b1000 #
b100 s
0!
#335000
b100100 U
b100100 h
b100 g
b100 d
b100 _
b100 c
b1 G
1*
b10 (
b10 E
b10 M
b10 /
b10 B
b10 J
1-
0)
b100100 ]
b100100 w
b0 F
b100101 W
1!
#340000
b100 s
0!
#345000
b10 g
b1001 l
1f
b10000000010 d
1e
b10000000010 _
b10000000010 c
b10000100010 U
b10000100010 h
1&
b10000000010 S
b10000000010 k
b100100 T
b110 G
b1 0
b1 A
b1 I
b0 (
b0 E
b0 M
b1 /
b1 B
b1 J
0*
0-
b100000 a
b100000 ^
b100000 `
b1001 v
b100000000100000100001001 j
b100100 \
b1 F
b100000 [
b1000000001000001000010010110011 Z
b100100 W
1!
#350000
b1000001100010100110011 R
b1000001100010100110011 r
b100 s
0!
#355000
b101 g
b1010 U
b1010 h
b1 1
b1 ?
b1 H
b1 b
0f
b101 d
0e
b101 _
b101 c
b1111 a
b1111 ^
b1111 `
b111 G
b10 @
b10 0
b10 A
b10 I
b0 /
b0 B
b0 J
b10000100010 ]
b10000100010 w
b110 F
b10000100010 W
b1000001100010100110011 Y
1!
#360000
b100 s
0!
#365000
b101001 U
b101001 h
b100100 a
b100100 ^
b100100 `
b0 1
b0 ?
b0 H
b0 b
b0 G
1)
b0 0
b0 A
b0 I
b0 @
b1010 ]
b1010 w
b111 F
b1010 W
1!
#370000
b101001101010101010000100010000000100000001000000010000000100000001000000010000000100000001000000010000000100000 {
b1010 z
b1001 |
b1001 #
b100 s
0!
#375000
b101000 U
b101000 h
b100 g
b100 d
b100 _
b100 c
b1 G
1*
b10 (
b10 E
b10 M
b10 /
b10 B
b10 J
1-
0)
b101000 ]
b101000 w
b0 F
b101001 W
1!
#380000
b100 s
0!
#385000
b10 g
b1010 l
b10 d
b10 _
b10 c
b100110 U
b100110 h
b100 '
b100 3
b100 Q
0&
b10 S
b10 k
b101000 T
b110 G
b1 0
b1 A
b1 I
b0 (
b0 E
b0 M
b1 /
b1 B
b1 J
0*
0-
b100100 a
b100100 ^
b100100 `
b1010 v
b100000110001010 j
b101000 \
b1 F
b100100 [
b1000001100010100110011 Z
b101000 W
1!
#390000
b1000001110010110110011 R
b1000001110010110110011 r
b100 s
0!
#395000
b101 g
b1010 U
b1010 h
b100 1
b100 ?
b100 H
b100 b
b101 d
b101 _
b101 c
b1111 a
b1111 ^
b1111 `
b111 G
b10 @
b10 0
b10 A
b10 I
b0 /
b0 B
b0 J
b100110 ]
b100110 w
b110 F
b100110 W
b1000001110010110110011 Y
1!
#400000
b100 s
0!
#405000
b101101 U
b101101 h
b101000 a
b101000 ^
b101000 `
b0 1
b0 ?
b0 H
b0 b
b0 G
1)
b0 0
b0 A
b0 I
b0 @
b1010 ]
b1010 w
b111 F
b1010 W
1!
#410000
b101100001001111010100100010000000100000001000000010000000100000001000000010000000100000001000000010000000100000 {
b1010 |
b1010 #
b100 s
0!
#415000
b101100 U
b101100 h
b100 g
b100 d
b100 _
b100 c
b1 G
1*
b10 (
b10 E
b10 M
b10 /
b10 B
b10 J
1-
0)
b101100 ]
b101100 w
b0 F
b101101 W
1!
#420000
b100 s
0!
#425000
b10 g
b1011 l
b10 d
b10 _
b10 c
b101010 U
b101010 h
b110 '
b110 3
b110 Q
b101100 T
b110 G
b1 0
b1 A
b1 I
b0 (
b0 E
b0 M
b1 /
b1 B
b1 J
0*
0-
b101000 a
b101000 ^
b101000 `
b1011 v
b100000111001011 j
b101100 \
b1 F
b101000 [
b1000001110010110110011 Z
b101100 W
1!
#430000
b1000001111011000110011 R
b1000001111011000110011 r
b100 s
0!
#435000
b101 g
b1111 U
b1111 h
b11 1
b11 ?
b11 H
b11 b
b101 d
b101 _
b101 c
b1111 a
b1111 ^
b1111 `
b111 G
b10 @
b10 0
b10 A
b10 I
b0 /
b0 B
b0 J
b101010 ]
b101010 w
b110 F
b101010 W
b1000001111011000110011 Y
1!
#440000
b100 s
0!
#445000
b110001 U
b110001 h
b101100 a
b101100 ^
b101100 `
b0 1
b0 ?
b0 H
b0 b
b0 G
1)
b0 0
b0 A
b0 I
b0 @
b1111 ]
b1111 w
b111 F
b1111 W
1!
#450000
b100111101010010001000000010000000100000001000000010000000100000001000000010000000100000001000000010000000100000 {
b1111 z
b1011 |
b1011 #
b100 s
0!
#455000
b110000 U
b110000 h
b100 g
b100 d
b100 _
b100 c
b1 G
1*
b10 (
b10 E
b10 M
b10 /
b10 B
b10 J
1-
0)
b110000 ]
b110000 w
b0 F
b110001 W
1!
#460000
b100 s
0!
#465000
b10 g
b1100 l
b10 d
b10 _
b10 c
b101110 U
b101110 h
b111 '
b111 3
b111 Q
b110000 T
b110 G
b1 0
b1 A
b1 I
b0 (
b0 E
b0 M
b1 /
b1 B
b1 J
0*
0-
b101100 a
b101100 ^
b101100 `
b1100 v
b100000111101100 j
b110000 \
b1 F
b101100 [
b1000001111011000110011 Z
b110000 W
1!
#470000
b1000001001011010110011 R
b1000001001011010110011 r
b100 s
0!
#475000
b101 g
b101 U
b101 h
b10 1
b10 ?
b10 H
b10 b
b101 d
b101 _
b101 c
b1111 a
b1111 ^
b1111 `
b111 G
b10 @
b10 0
b10 A
b10 I
b0 /
b0 B
b0 J
b101110 ]
b101110 w
b110 F
b101110 W
b1000001001011010110011 Y
1!
#480000
b100 s
0!
#485000
b110101 U
b110101 h
b110000 a
b110000 ^
b110000 `
b0 1
b0 ?
b0 H
b0 b
b0 G
1)
b0 0
b0 A
b0 I
b0 @
b101 ]
b101 w
b111 F
b101 W
1!
#490000
b100000101001110010001000010000000100000001000000010000000100000001000000010000000100000001000000010000000100000 {
b101 z
b1100 |
b1100 #
b100 s
0!
#495000
b110100 U
b110100 h
b100 g
b100 d
b100 _
b100 c
b1 G
1*
b10 (
b10 E
b10 M
b10 /
b10 B
b10 J
1-
0)
b110100 ]
b110100 w
b0 F
b110101 W
1!
#500000
b100 s
0!
#505000
b10 g
b1101 l
b10 d
b10 _
b10 c
b110010 U
b110010 h
b1 '
b1 3
b1 Q
b110100 T
b110 G
b1 0
b1 A
b1 I
b0 (
b0 E
b0 M
b1 /
b1 B
b1 J
0*
0-
b110000 a
b110000 ^
b110000 `
b1101 v
b100000100101101 j
b110100 \
b1 F
b110000 [
b1000001001011010110011 Z
b110100 W
1!
#510000
b1000001101011100110011 R
b1000001101011100110011 r
b100 s
0!
#515000
b101 g
b111100000 U
b111100000 h
b101 1
b101 ?
b101 H
b101 b
b101 d
b101 _
b101 c
b1111 a
b1111 ^
b1111 `
b111 G
b10 @
b10 0
b10 A
b10 I
b0 /
b0 B
b0 J
b110010 ]
b110010 w
b110 F
b110010 W
b1000001101011100110011 Y
1!
#520000
b100 s
0!
#525000
b111001 U
b111001 h
b110100 a
b110100 ^
b110100 `
b0 1
b0 ?
b0 H
b0 b
b0 G
1)
b0 0
b0 A
b0 I
b0 @
b111100000 ]
b111100000 w
b111 F
b111100000 W
1!
#530000
b101001101001100010011000010000000100000001000000010000000100000001000000010000000100000001000000010000000100000 {
b111100000 z
b1101 |
b1101 #
b100 s
0!
#535000
b111000 U
b111000 h
b100 g
b100 d
b100 _
b100 c
b1 G
1*
b10 (
b10 E
b10 M
b10 /
b10 B
b10 J
1-
0)
b111000 ]
b111000 w
b0 F
b111001 W
1!
#540000
b100 s
0!
#545000
b10 g
b1110 l
b10 d
b10 _
b10 c
b110110 U
b110110 h
b101 '
b101 3
b101 Q
b111000 T
b110 G
b1 0
b1 A
b1 I
b0 (
b0 E
b0 M
b1 /
b1 B
b1 J
0*
0-
b110100 a
b110100 ^
b110100 `
b1110 v
b100000110101110 j
b111000 \
b1 F
b110100 [
b1000001101011100110011 Z
b111000 W
1!
#550000
b1000000001000011101011110110011 R
b1000000001000011101011110110011 r
b100 s
0!
#555000
1$
b101 g
b0 U
b0 h
b110 1
b110 ?
b110 H
b110 b
b101 d
b101 _
b101 c
b1111 a
b1111 ^
b1111 `
b111 G
b10 @
b10 0
b10 A
b10 I
b0 /
b0 B
b0 J
b110110 ]
b110110 w
b110 F
b110110 W
b1000000001000011101011110110011 Y
1!
#560000
b100 s
0!
#565000
0$
b111101 U
b111101 h
b111000 a
b111000 ^
b111000 `
b0 1
b0 ?
b0 H
b0 b
b0 G
1)
b0 0
b0 A
b0 I
b0 @
b0 ]
b0 w
b111 F
b0 W
1!
#570000
b101001101010010010011000010000000100000001000000010000000100000001000000010000000100000001000000010000000100000 {
b0 z
b1110 |
b1110 #
b100 s
0!
#575000
b111100 U
b111100 h
b100 g
b100 d
b100 _
b100 c
b1 G
1*
b10 (
b10 E
b10 M
b10 /
b10 B
b10 J
1-
0)
b111100 ]
b111100 w
b0 F
b111101 W
1!
#580000
b100 s
0!
#585000
b10 g
b1111 l
1f
b10000000010 d
1e
b10000000010 _
b10000000010 c
b10000111010 U
b10000111010 h
1&
b11111111111111111111111111111111 O
b11111111111111111111111111111111 y
b10000000010 S
b10000000010 k
b111100 T
b110 G
b1 0
b1 A
b1 I
b0 (
b0 E
b0 M
b1 /
b1 B
b1 J
0*
0-
b111000 a
b111000 ^
b111000 `
b11 t
b1111 v
b100000000100001110101111 j
b111100 \
b1 F
b111000 [
b1000000001000011101011110110011 Z
b111100 W
1!
#590000
b100001000010001100011 R
b100001000010001100011 r
b100 s
0!
#595000
b101 g
b11111111111111111111111111111111 U
b11111111111111111111111111111111 h
b111 1
b111 ?
b111 H
b111 b
b101 d
b101 _
b101 c
b11111111111111111111111111111111 a
0e
b11111111111111111111111111111111 ^
b11111111111111111111111111111111 `
b111 G
b10 @
b10 0
b10 A
b10 I
b0 /
b0 B
b0 J
b10000111010 ]
b10000111010 w
b110 F
b10000111010 W
b11111111111111111111111111111111 V
b100001000010001100011 Y
1!
#600000
b100 s
0!
#605000
b1000001 U
b1000001 h
0f
b111100 a
b111100 ^
b111100 `
b0 1
b0 ?
b0 H
b0 b
b0 G
1)
b0 0
b0 A
b0 I
b0 @
b11111111111111111111111111111111 ]
b11111111111111111111111111111111 w
b111 F
b11111111111111111111111111111111 W
1!
#610000
b101001101010010010000010010000000100000001000000010000000100000001000000010000000100000001000000010000000100000 {
b11111111111111111111111111111111 z
b1111 |
b1111 #
b100 s
0!
#615000
b1000000 U
b1000000 h
b100 g
b100 d
b100 _
b100 c
b1 G
1*
b10 (
b10 E
b10 M
b10 /
b10 B
b10 J
1-
0)
b1000000 ]
b1000000 w
b0 F
b1000001 W
1!
#620000
b100 s
0!
#625000
b1000 g
b10 ,
b10 C
b10 K
b10 i
b10000 l
b1000 d
b1000 _
b1000 c
b1000100 U
b1000100 h
b1100011 %
b1100011 2
b1100011 P
b0 '
b0 3
b0 Q
0&
b1111 O
b1111 y
b1111 N
b1111 x
b1000 S
b1000 k
b1000000 T
b1010 G
b1 0
b1 A
b1 I
b0 (
b0 E
b0 M
b1 /
b1 B
b1 J
0*
0-
b111100 a
b111100 ^
b111100 `
b1 t
b1 u
b1000 v
b10000100001000 j
b1000000 \
b1 F
b111100 [
b100001000010001100011 Z
b1000000 W
1!
#630000
b100000000111100010011 R
b100000000111100010011 r
b100 s
0!
#635000
1*
b1111 g
1$
b0 U
b0 h
b1 1
b1 ?
b1 H
b1 b
b1111 d
b1111 _
b1111 c
b1111 a
b1111 ^
b1111 `
b0 G
b1 @
b10 0
b10 A
b10 I
b0 /
b0 B
b0 J
b1000100 ]
b1000100 w
b1010 F
b1000100 W
b1111 X
b1111 m
b1111 V
b100000000111100010011 Y
1!
#640000
b100 s
0!
#645000
b100 g
0$
b1001000 U
b1001000 h
b10001 l
b0 1
b0 ?
b0 H
b0 b
b100 d
b100 _
b100 c
b1000100 a
b1000100 ^
b1000100 `
b1000100 T
b1 G
b10 (
b10 E
b10 M
b10 /
b10 B
b10 J
1-
b0 0
b0 A
b0 I
b0 @
1*
b1001000 ]
b1001000 w
b1000100 \
b0 F
b0 W
1!
#650000
b1000001001010001100011 R
b1000001001010001100011 r
b100 s
0!
#655000
b1000 g
b1000 d
b1000 _
b1000 c
b10010 l
b1001100 U
b1001100 h
b1 '
b1 3
b1 Q
b101 N
b101 x
b1010 G
b1 0
b1 A
b1 I
b0 (
b0 E
b0 M
b1 /
b1 B
b1 J
0*
0-
b1001000 T
b1000100 a
b1000100 ^
b1000100 `
b10 u
b100000100101000 j
b1 F
b1001000 \
b1001000 W
b1000001001010001100011 Y
b1000100 [
b1000001001010001100011 Z
1!
#660000
b1000000000111100010011 R
b1000000000111100010011 r
b100 s
0!
